{
  "type": "service_account",
  "project_id": "trackon-61b00",
  "private_key_id": "6e54b35dcb09dfb9e629b3da3f6c3af9f80be929",
  "private_key": "-----BEGIN PRIVATE KEY-----\nMIIEvQIBADANBgkqhkiG9w0BAQEFAASCBKcwggSjAgEAAoIBAQCzn3b/5VNk8wFM\nlTHPmqNTRXNwVnirdd5KObQ9YsWUbcEOCVcDTfLh3onj7FBrFmizCUAar/bLxzNK\nAt9GHB8oasuFftVU0Qleo2asITEPiH1SrY0GABV7oza/LukJ5khcKgCiTSTUrTMp\nJX1fNEJwEP9QReiKWkt5rwmQLqBVgYXTN3nra0SykyMEiYgRhmPraCWai0WR2TBM\nB+yF9WsTc0fj1IeYDyvv7ygFhWGwwNCQ0p40aZxbIik0my7MV0UxSQ/JLY//GQ/2\n080PBkvW4e++Jhi+hRvdcI/tqjMw/0YSX/oC3bfrGqmlAr3NOYlRUg5jYgNcr1qf\nwF0ebw2PAgMBAAECggEAA+EsWU+TMwl6nDRWvJSq9Wf5G9KKTa3AjNrdNTw2Z0PN\nmSeDfRtIZS+Ay+71N7LmtQM8orbtPi6BwZX5S5Lc62sPFUWNhwTyzlv6IjqfTCYX\nCtubwabrz91RF+UD/IZARtlTZS4EXyGUis13/T/sNW5wjUPNR3u2yJyKuNYA+YfG\n2pC9rvbKjqLVw75izK55flW/JWOCL9ES3pZ/MfslBEOD0yozsMbVWIysV7EFDP3g\nG/cuJZ4MmsFUM0sB+41/nDKrhbRkOJqgrL3+MnrwqRT7lEjBTNFjB1OKONALnzt5\nDF+6yAYZst/TwMOZEun4G379XYqdDAoYmQRh2ZRffQKBgQDl4joaoyglDS6RbhSJ\ne82YdtHOOxH9RTIRbvNawQTOLS2sexxjvmP6K5WpcBqtoRd5GltgSTHQYdsaeRBI\nLYr/VtWMN/6ql4Mm8WQ/LT2lgdBzLfC79Tt0pH0IzDX0sIq+1egO6lj/tXDFoGN8\nHbN5d+wCk5+jBwDmScHhgmuEwwKBgQDIB30xCWtzTfgS4nqu/xxS3BVOCND7vTAV\nnFvGZuyibqF3HXqVyuy7ay9Izccqsyrn53KcFyFUpRoIYXByOrK+LTtou5v3Ce4d\n8d+DqyQL4Nfa69dko+hKZ8fAlCh6UILyJixK/lDdShh13Giq8OUY5fNRnaqT8Otg\nsVRSj/JXRQKBgBu8PqxmEPrfa0XqlRm9USHa/Bc4s0PubEsEKuJBNXY2pzMPK26x\nUtilF4p41w8px246CtpEGnl8xPWds6Qxsnp6HIutWdF1NEKnjyO8LprgXaj32vqi\nbMj264r7MGtUPXkmz7e0+IXpezCs2DPqVXQLTvNEolcGCkq+jWDK3nQHAoGAbNfO\nYnl6s3JQs43zLff5JIlHOoAHn4PRf2Dme24UA0rpp1QuGQYjjNQFFbuLTYvSo//H\n2HGpnFJ+eOL0eePA0UTxl8rGUkVgAYFUm2PrqF7/dctxF/0scBhKlFrKL8xRhIwK\n+/+oZtFjv/ZgKewM7WBq5xVA9WFZ4vJ7LLXRK3UCgYEAz3T+Ec5/7ntpbH8a9G8D\nHgtty6EVQ5++GGRUWrVBoyQ/FCBl1NfURo+BYHkIHQD2IeC4/pgz14bureHzPV9L\nUDDOTcyH77vc3s1Q6/O3olyeqjtHK3zka1pko+CLuRBYUCaWIERQn6rz83pm8i58\nBoZeBeEuup1TQRquERgR5J4=\n-----END PRIVATE KEY-----\n",
  "client_email": "firebase-adminsdk-mxk9y@trackon-61b00.iam.gserviceaccount.com",
  "client_id": "107518708955789211725",
  "auth_uri": "https://accounts.google.com/o/oauth2/auth",
  "token_uri": "https://oauth2.googleapis.com/token",
  "auth_provider_x509_cert_url": "https://www.googleapis.com/oauth2/v1/certs",
  "client_x509_cert_url": "https://www.googleapis.com/robot/v1/metadata/x509/firebase-adminsdk-mxk9y%40trackon-61b00.iam.gserviceaccount.com",
  "universe_domain": "googleapis.com"
}
